<?xml version="1.0" encoding="utf-8"?>
<!-- Generator: Adobe Illustrator 16.0.4, SVG Export Plug-In . SVG Version: 6.00 Build 0)  -->
<!DOCTYPE svg PUBLIC "-//W3C//DTD SVG 1.1//EN" "http://www.w3.org/Graphics/SVG/1.1/DTD/svg11.dtd">
<svg version="1.1" id="Layer_1" xmlns="http://www.w3.org/2000/svg" xmlns:xlink="http://www.w3.org/1999/xlink" x="0px" y="0px"
	 width="32px" height="33px" viewBox="0 0 32 33" enable-background="new 0 0 32 33" xml:space="preserve">
<g id="close">
	<g id="Shape-4">
		<path id="Shape-4-fill" fill="#FFFFFF" d="M0.09,2.004L1.504,0.59L31.91,30.996l-1.414,1.414L0.09,2.004z"/>
		<path id="Shape-4-stroke" fill="none" d="M4.341,5.76l1.036-1.048L27.659,27.24l-1.036,1.048L4.341,5.76z"/>
	</g>
	<g id="Shape-4_1_">
		<path id="Shape-4-fill_1_" fill="#FFFFFF" d="M30.496,0.59l1.414,1.414L1.504,32.41L0.09,30.996L30.496,0.59z"/>
		<path id="Shape-4-stroke_1_" fill="none" d="M26.623,4.712l1.036,1.048L5.377,28.288L4.341,27.24L26.623,4.712z"/>
	</g>
</g>
</svg>
